[
{
"id": 1,
"showcase_slug": "mixed_for_you",
"showcase_name": "Mixed For You",
"showcase_type": "music_app",
"status": null,
"created_at": null,
"updated_at": null,
"order": 2,
"showcase_detail_music": [
{
"id": 1,
"showcase_slug": "mixed_for_you",
"playlist_key": "RDCLAK5uy_k5_CJ6fyZWe-3CxXGtlbNlYXdLmpRHjBw",
"status": 1,
"created_at": null,
"updated_at": null,
"order": 0,
"playlist_info": {
"id": 2,
"playlist_key": "RDCLAK5uy_k5_CJ6fyZWe-3CxXGtlbNlYXdLmpRHjBw",
"playlist_name": "Released",
"playlist_description": " ",
"thumb": "https://lh3.googleusercontent.com/IXWolc7W4tJ88Arej7_4WzWr2BZawB0N0nhGHa1aTKL2lCJYVSnA_jLCnG689AQXRvCd79x5hes2oikOMw=w544-h544-l90-rj",
"cover": " ",
"category_id": 1,
"category_name": null,
"user_id": 1,
"created_at": "2020-06-30T04:11:30.000000Z",
"updated_at": "2020-11-25T16:47:35.000000Z",
"hidden": 0,
"top": null,
"new": null,
"order": null,
"artist": null
}
},
{
"id": 2,
"showcase_slug": "mixed_for_you",
"playlist_key": "PL4fGSI1pDJn5kI81J1fYWK5eZRl1zJ5kM",
"status": 1,
"created_at": null,
"updated_at": null,
"order": 0,
"playlist_info": {
"id": 3,
"playlist_key": "PL4fGSI1pDJn5kI81J1fYWK5eZRl1zJ5kM",
"playlist_name": "Top 100 Music Videos Global",
"playlist_description": " ",
"thumb": "https://i1.sndcdn.com/artworks-9Mda9XzCSx2O-0-t240x240.jpg",
"cover": "https://i1.sndcdn.com/artworks-9Mda9XzCSx2O-0-t240x240.jpg",
"category_id": 17,
"category_name": null,
"user_id": 1,
"created_at": "2020-06-30T04:12:39.000000Z",
"updated_at": "2021-08-06T08:10:39.000000Z",
"hidden": 0,
"top": null,
"new": null,
"order": null,
"artist": null
}
}
]
},
{
"id": 2,
"showcase_slug": "today_hit",
"showcase_name": "Today's Hit",
"showcase_type": "music_app",
"status": null,
"created_at": null,
"updated_at": null,
"order": 3,
"showcase_detail_music": [
{
"id": 3,
"showcase_slug": "today_hit",
"playlist_key": "RDCLAK5uy_k5_CJ6fyZWe-3CxXGtlbNlYXdLmpRHjBw",
"status": 1,
"created_at": null,
"updated_at": null,
"order": 0,
"playlist_info": {
"id": 2,
"playlist_key": "RDCLAK5uy_k5_CJ6fyZWe-3CxXGtlbNlYXdLmpRHjBw",
"playlist_name": "Released",
"playlist_description": " ",
"thumb": "https://lh3.googleusercontent.com/IXWolc7W4tJ88Arej7_4WzWr2BZawB0N0nhGHa1aTKL2lCJYVSnA_jLCnG689AQXRvCd79x5hes2oikOMw=w544-h544-l90-rj",
"cover": " ",
"category_id": 1,
"category_name": null,
"user_id": 1,
"created_at": "2020-06-30T04:11:30.000000Z",
"updated_at": "2020-11-25T16:47:35.000000Z",
"hidden": 0,
"top": null,
"new": null,
"order": null,
"artist": null
}
},
{
"id": 4,
"showcase_slug": "today_hit",
"playlist_key": "RDCLAK5uy_kQqmRLAa9mbCmVl0OrI8SXh_-HliY1Rq0",
"status": 1,
"created_at": null,
"updated_at": null,
"order": 0,
"playlist_info": {
"id": 4,
"playlist_key": "RDCLAK5uy_kQqmRLAa9mbCmVl0OrI8SXh_-HliY1Rq0",
"playlist_name": "Pop Hotlist",
"playlist_description": " ",
"thumb": "https://pbs.twimg.com/media/D-tahC_XsAAKOXz.jpg",
"cover": "https://pbs.twimg.com/media/D-tahC_XsAAKOXz.jpg",
"category_id": 1,
"category_name": null,
"user_id": 1,
"created_at": "2020-06-30T04:13:25.000000Z",
"updated_at": "2021-08-06T08:11:47.000000Z",
"hidden": 0,
"top": null,
"new": null,
"order": null,
"artist": null
}
},
{
"id": 5,
"showcase_slug": "today_hit",
"playlist_key": "RDCLAK5uy_mlGRriVQjPo4T2tRhAwZpfmHqg1rIe9EY",
"status": 1,
"created_at": null,
"updated_at": null,
"order": 0,
"playlist_info": {
"id": 28,
"playlist_key": "RDCLAK5uy_mlGRriVQjPo4T2tRhAwZpfmHqg1rIe9EY",
"playlist_name": "Rap + R&B Hotlist",
"playlist_description": "Playlist • YouTube Music • 2021\r\n75 songs • 4 hours, 16 minutes\r\nThe hottest tracks and latest hits in rap and R&B.",
"thumb": "https://lh3.googleusercontent.com/t7-94ndmfq82wh-ZDRDu2VlejSlgcNXIHGruoFrA2ISXafs0m-Hdc7W9Vp-sP15l5fL9pw3EFnG7Rw=w544-h544-l90-rj",
"cover": "https://lh3.googleusercontent.com/t7-94ndmfq82wh-ZDRDu2VlejSlgcNXIHGruoFrA2ISXafs0m-Hdc7W9Vp-sP15l5fL9pw3EFnG7Rw=w544-h544-l90-rj",
"category_id": 14,
"category_name": null,
"user_id": 1,
"created_at": "2021-09-09T05:37:26.000000Z",
"updated_at": "2021-09-09T05:37:26.000000Z",
"hidden": 0,
"top": null,
"new": 0,
"order": null,
"artist": null
}
}
]
},
{
"id": 3,
"showcase_slug": "new_release",
"showcase_name": "New releases",
"showcase_type": "music_app",
"status": null,
"created_at": null,
"updated_at": null,
"order": 1,
"showcase_detail_music": [
{
"id": 6,
"showcase_slug": "new_release",
"playlist_key": "OLAK5uy_nxeylDgm2KKI-M408KdNl3pupZLuFHPY8",
"status": 1,
"created_at": null,
"updated_at": null,
"order": 0,
"playlist_info": {
"id": 29,
"playlist_key": "OLAK5uy_nxeylDgm2KKI-M408KdNl3pupZLuFHPY8",
"playlist_name": "Acapulco",
"playlist_description": "Single • Jason Derulo • 2021\r\n1 song • 2 minutes, 20 seconds",
"thumb": "https://lh3.googleusercontent.com/IacaxZa13pBGru1J8M0rJ0Jc__mJV3wgEWOUYLB-FmSLMJT1d6eT-eswqCFydtFhYsffgi2p0Hr2rtU=w544-h544-l90-rj",
"cover": "https://lh3.googleusercontent.com/IacaxZa13pBGru1J8M0rJ0Jc__mJV3wgEWOUYLB-FmSLMJT1d6eT-eswqCFydtFhYsffgi2p0Hr2rtU=w544-h544-l90-rj",
"category_id": 13,
"category_name": null,
"user_id": 1,
"created_at": "2021-09-09T16:51:53.000000Z",
"updated_at": "2021-09-09T16:51:53.000000Z",
"hidden": 0,
"top": 1,
"new": 0,
"order": null,
"artist": null
}
},
{
"id": 7,
"showcase_slug": "new_release",
"playlist_key": "OLAK5uy_myLA5qzZyY5sH2Zk8hEEnI-qV7ghDhQTw",
"status": 1,
"created_at": null,
"updated_at": null,
"order": 0,
"playlist_info": {
"id": 41,
"playlist_key": "OLAK5uy_myLA5qzZyY5sH2Zk8hEEnI-qV7ghDhQTw",
"playlist_name": "ABBA: Take It Now Or Leave It",
"playlist_description": "ABBA: Take It Now Or Leave It",
"thumb": "https://lh3.googleusercontent.com/KaF6h5HbjsaAToiDBrkUqAQwOLprpgS9nlzfGbheONG5GI-7BWXZKp9AVOVeFGYQx8MqT7lqiq4G1on-GA=w544-h544-l90-rj",
"cover": "https://lh3.googleusercontent.com/KaF6h5HbjsaAToiDBrkUqAQwOLprpgS9nlzfGbheONG5GI-7BWXZKp9AVOVeFGYQx8MqT7lqiq4G1on-GA=w544-h544-l90-rj",
"category_id": 8,
"category_name": null,
"user_id": 1,
"created_at": "2021-09-14T09:24:28.000000Z",
"updated_at": "2021-09-14T09:24:28.000000Z",
"hidden": 0,
"top": null,
"new": 0,
"order": null,
"artist": null
}
},
{
"id": 8,
"showcase_slug": "new_release",
"playlist_key": "OLAK5uy_mq1e1sbGtwKivc-LFdb-8aWf9Iifm7vtg",
"status": 1,
"created_at": null,
"updated_at": null,
"order": 0,
"playlist_info": {
"id": 43,
"playlist_key": "OLAK5uy_mq1e1sbGtwKivc-LFdb-8aWf9Iifm7vtg",
"playlist_name": "MONTERO",
"playlist_description": "Album • Lil Nas X • 2021\r\n15 songs • 41 minutes",
"thumb": "https://lh3.googleusercontent.com/8wTSftJOtEIf3iqBJq_HfPzLYiN8ni4QymjSwCHRfYw-mSClbmimIb0o9GW7FZYLb0S1aFYz16pHmjjcYA=w544-h544-l90-rj",
"cover": "https://lh3.googleusercontent.com/8wTSftJOtEIf3iqBJq_HfPzLYiN8ni4QymjSwCHRfYw-mSClbmimIb0o9GW7FZYLb0S1aFYz16pHmjjcYA=w544-h544-l90-rj",
"category_id": 8,
"category_name": null,
"user_id": 1,
"created_at": "2021-09-27T07:09:44.000000Z",
"updated_at": "2021-09-27T07:09:44.000000Z",
"hidden": 0,
"top": 1,
"new": 0,
"order": null,
"artist": null
}
}
]
}
]