{
"name": "New Album",
"listplaylist": [
{
"id": 30,
"playlist_key": "RDCLAK5uy_k1VVBVsS6pu1pVkYZK2B0EWic3i4j_TY4",
"playlist_name": "Beast Mode Hip Hop",
"playlist_description": "Enter beast mode with this aggressive, hard-hitting mix of new and classic hip hop tracks.",
"thumb": "https://lh3.googleusercontent.com/1F7jqgt5lmSgNweG3MYXmYw4yv9xYle4WH_XQ-o72iuHlxI8MLZV_g7AtnofyBQVocQpi6VWhbFCVSE=w544-h544-l90-rj",
"cover": "https://lh3.googleusercontent.com/1F7jqgt5lmSgNweG3MYXmYw4yv9xYle4WH_XQ-o72iuHlxI8MLZV_g7AtnofyBQVocQpi6VWhbFCVSE=w544-h544-l90-rj",
"category_id": 9,
"category_name": null,
"user_id": 1,
"created_at": "2021-09-10T05:33:00.000000Z",
"updated_at": "2021-09-10T05:34:33.000000Z",
"hidden": 0,
"top": null,
"new": 1,
"order": null,
"artist": null
},
{
"id": 27,
"playlist_key": "OLAK5uy_kZTe3AtTLf-rVTNFfmKMdy9wp16xmg0qs",
"playlist_name": "Happier Than Ever",
"playlist_description": "Album • Billie Eilish • 2021\r\n16 songs • 56 minutes\r\nHappier Than Ever is the second studio album by American singer and songwriter Billie Eilish, released on July 30, 2021, by Darkroom and Interscope Records. Eilish co-wrote the album with its producer, her brother Finneas O'Connell. She cited self-reflection during the COVID-19 pandemic as the biggest inspiration for the record.\r\nPrimarily a downtempo pop record, Happier Than Ever is characterized by subdued and sparse electropop arrangements set to slow tempos. It consists of torch songs about the downsides of stardom, drawing from Eilish's rise to fame. Music critics praised the album, underscoring its stylistic production and insightful lyrics. Five singles were released in promotion of the album: \"My Future\", \"Therefore I Am\", \"Your Power\", \"Lost Cause\", and \"NDA\", all of which charted in the top 40 of the US Billboard Hot 100. To promote it further, a Disney+ documentary concert film, Happier Than Ever: A Love Letter to Los Angeles, will be released on September 3, 2021, and Eilish will embark on Happier Than Ever the World Tour in 2022.",
"thumb": "https://lh3.googleusercontent.com/pWO2rD8Q-ewDGhzt6_WU4ML9IVEdSxys8ENJMKr1msKrGC1PDIFycSNbwhoT9zoDdTp4X7ioo2T42S0=w544-h544-l90-rj",
"cover": "https://lh3.googleusercontent.com/pWO2rD8Q-ewDGhzt6_WU4ML9IVEdSxys8ENJMKr1msKrGC1PDIFycSNbwhoT9zoDdTp4X7ioo2T42S0=w544-h544-l90-rj",
"category_id": 5,
"category_name": null,
"user_id": 1,
"created_at": "2021-08-06T15:38:09.000000Z",
"updated_at": "2021-08-07T04:41:18.000000Z",
"hidden": 0,
"top": 1,
"new": 1,
"order": null,
"artist": null
},
{
"id": 26,
"playlist_key": "OLAK5uy_nRoMSORHt4QOeGrt06yhhUAvGvVSn-KAo",
"playlist_name": "Bad Habits (Joel Corry Remix)",
"playlist_description": "Single • Ed Sheeran • 2021\r\n1 song • 3 minutes",
"thumb": "https://lh3.googleusercontent.com/NEUGRMSpQwvFf0ND72Z0GAjaILd0rprHforRdrbb6HU9FIo4HLc_zV5QGajEjKUPM46SnrxZ8pTwF6uV=w544-h544-l90-rj",
"cover": "https://lh3.googleusercontent.com/NEUGRMSpQwvFf0ND72Z0GAjaILd0rprHforRdrbb6HU9FIo4HLc_zV5QGajEjKUPM46SnrxZ8pTwF6uV=w544-h544-l90-rj",
"category_id": 1,
"category_name": null,
"user_id": 1,
"created_at": "2021-08-06T15:27:20.000000Z",
"updated_at": "2021-08-07T04:41:22.000000Z",
"hidden": 0,
"top": 1,
"new": 1,
"order": null,
"artist": null
}
]
}